^C:\Users\saura\source\repos\C++ Learning\310720-classes\310720-classes.vcxproj
C:\Users\saura\source\repos\C++ Learning\x64\Release\310720-classes.ipdb
C:\Users\saura\source\repos\C++ Learning\x64\Release\310720-classes.iobj
^C:\Users\saura\source\repos\C++ Learning\310720-classes\310720-classes.vcxproj
C:\Users\saura\source\repos\C++ Learning\x64\Release\310720-classes.ipdb
C:\Users\saura\source\repos\C++ Learning\x64\Release\310720-classes.iobj
^C:\Users\saura\source\repos\C++ Learning\310720-classes\310720-classes.vcxproj
C:\Users\saura\source\repos\C++ Learning\x64\Release\310720-classes.ipdb
C:\Users\saura\source\repos\C++ Learning\x64\Release\310720-classes.iobj
^C:\Users\saura\source\repos\C++ Learning\310720-classes\310720-classes.vcxproj
C:\Users\saura\source\repos\C++ Learning\x64\Release\310720-classes.ipdb
C:\Users\saura\source\repos\C++ Learning\x64\Release\310720-classes.iobj
^C:\Users\saura\source\repos\C++ Learning\310720-classes\310720-classes.vcxproj
C:\Users\saura\source\repos\C++ Learning\x64\Release\310720-classes.ipdb
C:\Users\saura\source\repos\C++ Learning\x64\Release\310720-classes.iobj
^C:\Users\saura\source\repos\C++ Learning\310720-classes\310720-classes.vcxproj
C:\Users\saura\source\repos\C++ Learning\x64\Release\310720-classes.ipdb
C:\Users\saura\source\repos\C++ Learning\x64\Release\310720-classes.iobj
^C:\Users\saura\source\repos\C++ Learning\310720-classes\310720-classes.vcxproj
C:\Users\saura\source\repos\C++ Learning\x64\Release\310720-classes.ipdb
C:\Users\saura\source\repos\C++ Learning\x64\Release\310720-classes.iobj
^C:\Users\saura\source\repos\C++ Learning\310720-classes\310720-classes.vcxproj
C:\Users\saura\source\repos\C++ Learning\x64\Release\310720-classes.ipdb
C:\Users\saura\source\repos\C++ Learning\x64\Release\310720-classes.iobj
^C:\Users\saura\source\repos\C++ Learning\310720-classes\310720-classes.vcxproj
C:\Users\saura\source\repos\C++ Learning\x64\Release\310720-classes.ipdb
C:\Users\saura\source\repos\C++ Learning\x64\Release\310720-classes.iobj
^C:\Users\saura\source\repos\C++ Learning\310720-classes\310720-classes.vcxproj
C:\Users\saura\source\repos\C++ Learning\x64\Release\310720-classes.ipdb
C:\Users\saura\source\repos\C++ Learning\x64\Release\310720-classes.iobj
^C:\Users\saura\source\repos\C++ Learning\310720-classes\310720-classes.vcxproj
C:\Users\saura\source\repos\C++ Learning\x64\Release\310720-classes.ipdb
C:\Users\saura\source\repos\C++ Learning\x64\Release\310720-classes.iobj
