^C:\USERS\SAURA\SOURCE\REPOS\C++ LEARNING\310720-CLASSES\MAIN.CPP|C:\USERS\SAURA\SOURCE\REPOS\C++ LEARNING\310720-CLASSES\MARKET.CPP|C:\USERS\SAURA\SOURCE\REPOS\C++ LEARNING\310720-CLASSES\VANILLA_OPTION.CPP
C:\USERS\SAURA\SOURCE\REPOS\C++ LEARNING\310720-CLASSES\X64\RELEASE\VC142.PDB
C:\USERS\SAURA\SOURCE\REPOS\C++ LEARNING\310720-CLASSES\X64\RELEASE\MARKET.OBJ
C:\USERS\SAURA\SOURCE\REPOS\C++ LEARNING\310720-CLASSES\X64\RELEASE\VANILLA_OPTION.OBJ
C:\USERS\SAURA\SOURCE\REPOS\C++ LEARNING\310720-CLASSES\X64\RELEASE\MAIN.OBJ
^C:\USERS\SAURA\SOURCE\REPOS\C++ LEARNING\310720-CLASSES\VANILLA_OPTION.CPP
C:\USERS\SAURA\SOURCE\REPOS\C++ LEARNING\310720-CLASSES\X64\RELEASE\VC142.PDB
^C:\USERS\SAURA\SOURCE\REPOS\C++ LEARNING\310720-CLASSES\MARKET.CPP
C:\USERS\SAURA\SOURCE\REPOS\C++ LEARNING\310720-CLASSES\X64\RELEASE\VC142.PDB
^C:\USERS\SAURA\SOURCE\REPOS\C++ LEARNING\310720-CLASSES\MAIN.CPP
C:\USERS\SAURA\SOURCE\REPOS\C++ LEARNING\310720-CLASSES\X64\RELEASE\VC142.PDB
C:\USERS\SAURA\SOURCE\REPOS\C++ LEARNING\310720-CLASSES\X64\RELEASE\MAIN.OBJ
