^C:\USERS\SAURA\SOURCE\REPOS\C++ LEARNING\310720-CLASSES\X64\RELEASE\MAIN.OBJ|C:\USERS\SAURA\SOURCE\REPOS\C++ LEARNING\310720-CLASSES\X64\RELEASE\MARKET.OBJ|C:\USERS\SAURA\SOURCE\REPOS\C++ LEARNING\310720-CLASSES\X64\RELEASE\VANILLA_OPTION.OBJ
/OUT:"C:\USERS\SAURA\SOURCE\REPOS\C++ LEARNING\X64\RELEASE\310720-CLASSES.EXE" /INCREMENTAL:NO /NOLOGO /LIBPATH:"C:\USERS\SAURA\SOURCE\REPOS\C++ LEARNING\LIBS\XLNT\LIB" XLNT.LIB KERNEL32.LIB USER32.LIB GDI32.LIB WINSPOOL.LIB COMDLG32.LIB ADVAPI32.LIB SHELL32.LIB OLE32.LIB OLEAUT32.LIB UUID.LIB ODBC32.LIB ODBCCP32.LIB /MANIFEST /MANIFESTUAC:"level='asInvoker' uiAccess='false'" /manifest:embed /DEBUG /PDB:"C:\USERS\SAURA\SOURCE\REPOS\C++ LEARNING\X64\RELEASE\310720-CLASSES.PDB" /SUBSYSTEM:CONSOLE /OPT:REF /OPT:ICF /LTCG:incremental /TLBID:1 /DYNAMICBASE /NXCOMPAT /IMPLIB:"C:\USERS\SAURA\SOURCE\REPOS\C++ LEARNING\X64\RELEASE\310720-CLASSES.LIB" /MACHINE:X64 X64\RELEASE\MAIN.OBJ
X64\RELEASE\VANILLA_OPTION.OBJ
X64\RELEASE\MARKET.OBJ
