^C:\USERS\SAURA\SOURCE\REPOS\C++ LEARNING\310720-CLASSES\DEBUG\310720-CLASSES.OBJ
/OUT:"C:\USERS\SAURA\SOURCE\REPOS\C++ LEARNING\DEBUG\310720-CLASSES.EXE" /INCREMENTAL /NOLOGO KERNEL32.LIB USER32.LIB GDI32.LIB WINSPOOL.LIB COMDLG32.LIB ADVAPI32.LIB SHELL32.LIB OLE32.LIB OLEAUT32.LIB UUID.LIB ODBC32.LIB ODBCCP32.LIB /MANIFEST /MANIFESTUAC:"level='asInvoker' uiAccess='false'" /manifest:embed /DEBUG:FASTLINK /PDB:"C:\USERS\SAURA\SOURCE\REPOS\C++ LEARNING\DEBUG\310720-CLASSES.PDB" /SUBSYSTEM:CONSOLE /TLBID:1 /DYNAMICBASE /NXCOMPAT /IMPLIB:"C:\USERS\SAURA\SOURCE\REPOS\C++ LEARNING\DEBUG\310720-CLASSES.LIB" /MACHINE:X86 "DEBUG\310720-CLASSES.OBJ"
^C:\USERS\SAURA\SOURCE\REPOS\C++ LEARNING\310720-CLASSES\DEBUG\MAIN.OBJ|C:\USERS\SAURA\SOURCE\REPOS\C++ LEARNING\310720-CLASSES\DEBUG\MARKET.OBJ|C:\USERS\SAURA\SOURCE\REPOS\C++ LEARNING\310720-CLASSES\DEBUG\VANILLA_OPTION.OBJ
/OUT:"C:\USERS\SAURA\SOURCE\REPOS\C++ LEARNING\DEBUG\310720-CLASSES.EXE" /INCREMENTAL /NOLOGO KERNEL32.LIB USER32.LIB GDI32.LIB WINSPOOL.LIB COMDLG32.LIB ADVAPI32.LIB SHELL32.LIB OLE32.LIB OLEAUT32.LIB UUID.LIB ODBC32.LIB ODBCCP32.LIB /MANIFEST /MANIFESTUAC:"level='asInvoker' uiAccess='false'" /manifest:embed /DEBUG:FASTLINK /PDB:"C:\USERS\SAURA\SOURCE\REPOS\C++ LEARNING\DEBUG\310720-CLASSES.PDB" /SUBSYSTEM:CONSOLE /TLBID:1 /DYNAMICBASE /NXCOMPAT /IMPLIB:"C:\USERS\SAURA\SOURCE\REPOS\C++ LEARNING\DEBUG\310720-CLASSES.LIB" /MACHINE:X86 DEBUG\MAIN.OBJ
DEBUG\VANILLA_OPTION.OBJ
DEBUG\MARKET.OBJ
